<?xml version="1.0" encoding="utf-8"?>
<!-- Generator: Adobe Illustrator 16.0.0, SVG Export Plug-In . SVG Version: 6.00 Build 0)  -->
<!DOCTYPE svg PUBLIC "-//W3C//DTD SVG 1.1//EN" "http://www.w3.org/Graphics/SVG/1.1/DTD/svg11.dtd">
<svg version="1.1" xmlns="http://www.w3.org/2000/svg" xmlns:xlink="http://www.w3.org/1999/xlink" x="0px" y="0px" width="1080px"
	 height="1080px" viewBox="0 0 1080 1080" enable-background="new 0 0 1080 1080" xml:space="preserve">
<g id="Layer_9" display="none">
	<rect display="inline" width="1080" height="1080"/>
</g>
<g id="Transparent_copy">
	
		<text transform="matrix(1 0 0 1 97.5981 712.8594)" fill="#00BEC9" font-family="'MyriadPro-Regular'" font-size="64.0387" letter-spacing="3">Home automation at its best ....</text>
	<g>
		<g>
			<path fill="#00BEC9" d="M656.91,487.41c0-5.31-4.101-9.46-9.46-9.46c-5.311,0-9.41,4.15-9.41,9.46c0,4.73,4.1,9.46,9.41,9.46
				C652.81,496.87,656.91,492.14,656.91,487.41z"/>
		</g>
		<g>
			<path fill="#00BEC9" d="M529.9,411.18c0-7.67-6.57-13.56-13.61-13.56c-7.1,0-13.05,5.89-13.05,13.56
				c0,7.1,5.95,12.99,13.05,12.99C523.33,424.17,529.9,418.28,529.9,411.18z"/>
		</g>
		<g>
			<path fill="#00BEC9" d="M745.59,409.33h36.42l-100.96-89.24l-22.68,20.05L525.21,222.46L392.05,340.14l-22.67-20.05
				l-100.96,89.24h36.37v98.66c-55.78,23.32-88.79,47.64-90.13,48.46c0.96,0.01,68.15-30.26,166.54-47.25v-6.79l-0.23-0.23
				c-6.52-1.79-11.25-8.25-11.25-14.77c0-9.46,7.67-17.14,16.56-17.14c9.46,0,16.56,7.68,16.56,17.14c0,6.52-4.16,12.98-10.68,14.77
				c-0.05,0.05-0.07,0.07-0.11,0.11v5.11c10.93-1.73,22.21-3.29,33.81-4.62v-30.72l-30.7-31.33c-3.57,2.36-7.67,3.57-11.83,3.57
				c-12.98,0-23.65-10.67-23.65-23.65c0-12.99,10.67-23.03,23.65-23.03c12.99,0,23.61,10.04,23.61,23.03
				c0,4.15-1.16,7.67-2.95,11.25l34.86,34.22v35.28c11.56-1.12,23.4-2.01,35.48-2.59v-22.59l-30.18-30.18v-70.92
				c-10.61-2.31-18.86-11.77-18.86-23.03c0-12.98,10.61-23.6,23.6-23.6c13.04,0,23.08,10.62,23.08,23.6
				c0,10.04-5.89,18.93-15.35,21.3v67.34l30.7,30.12v27.44c7.4-0.23,14.89-0.34,22.45-0.33v-64.91
				c-10.05-2.36-17.14-11.25-17.14-21.87c0-13.56,10.61-23.6,23.66-23.6c12.98,0,23.65,10.04,23.65,23.6
				c0,10.62-7.15,19.51-17.19,21.87v64.91c7.78,0,15.47,0.12,23.08,0.37v-18.59l30.12-30.76v-65.55
				c-8.891-2.94-15.351-11.83-15.351-21.87c0-12.99,10.62-23.66,23.03-23.66c12.98,0,23.65,10.67,23.65,23.66
				c0,11.25-7.67,20.66-18.29,23.02v70.34l-30.75,30.12v13.81c12.279,0.61,24.319,1.53,36.06,2.69v-44.83l35.431-35.49
				c-1.79-2.94-2.36-6.46-2.36-10.04c0-12.4,10.04-23.6,23.02-23.6c13.04,0,23.66,11.2,23.66,23.6c0,12.99-10.62,23.66-23.66,23.66
				c-4.729,0-8.89-1.79-12.35-3.57l-31.39,30.75v40.85c12.189,1.41,24.04,3.07,35.489,4.93v-5.04c-6.52-2.37-11.25-8.25-11.25-15.35
				c0-9.46,7.15-17.14,16.561-17.14c8.83,0,16.56,7.68,16.56,17.14c0,7.1-4.16,12.98-11.2,15.35v6.84
				c97.15,17.07,163.311,46.87,164.25,46.85c-1.18-0.73-27.04-19.76-71.47-40.26V409.33z"/>
		</g>
		<g>
			<path fill="#00BEC9" d="M650.39,424.8c7.73,0,13.62-6.52,13.62-13.62c0-7.09-5.89-12.98-13.62-12.98
				c-7.04,0-12.979,5.89-12.979,12.98C637.41,418.28,643.35,424.8,650.39,424.8z"/>
		</g>
		<g>
			<path fill="#00BEC9" d="M461.93,352.09c0-7.67-5.89-13.56-13.04-13.56c-7.04,0-12.99,5.89-12.99,13.56
				c0,7.1,5.95,12.99,12.99,12.99C456.04,365.08,461.93,359.19,461.93,352.09z"/>
		</g>
		<g>
			<path fill="#00BEC9" d="M395.74,487.41c0-5.31-4.15-9.46-9.46-9.46c-4.73,0-8.89,4.15-8.89,9.46c0,4.73,4.16,9.46,8.89,9.46
				C391.59,496.87,395.74,492.14,395.74,487.41z"/>
		</g>
		<g>
			<path fill="#00BEC9" d="M597.19,361.56c0-7.1-5.891-13.62-13.561-13.62c-6.53,0-12.99,6.52-12.99,13.62s6.46,12.98,12.99,12.98
				C591.3,374.54,597.19,368.66,597.19,361.56z"/>
		</g>
		<g>
			<path fill="#00BEC9" d="M370.35,420.65c0,7.67,5.89,13.56,12.98,13.56c7.68,0,12.99-5.89,12.99-13.56
				c0-7.1-5.31-12.99-12.99-12.99C376.24,407.66,370.35,413.55,370.35,420.65z"/>
		</g>
	</g>
	
		<text transform="matrix(1 0 0 1 202.2974 638.3047)" fill="#FFFFFF" font-family="'HURTMOLD'" font-size="184.1392" letter-spacing="184">ILE</text>
</g>
<g id="white_background_copy" display="none">
	<rect display="inline" fill="#FFFFFF" width="1080" height="1080"/>
	
		<text transform="matrix(1 0 0 1 97.5981 712.8594)" display="inline" fill="#00BEC9" font-family="'MyriadPro-Regular'" font-size="64.0387" letter-spacing="3">Home automation at its best ....</text>
	<g display="inline">
		<g>
			<path fill="#00BEC9" d="M656.91,487.41c0-5.31-4.101-9.46-9.46-9.46c-5.311,0-9.41,4.15-9.41,9.46c0,4.73,4.1,9.46,9.41,9.46
				C652.81,496.87,656.91,492.14,656.91,487.41z"/>
		</g>
		<g>
			<path fill="#00BEC9" d="M529.9,411.18c0-7.67-6.57-13.56-13.61-13.56c-7.1,0-13.05,5.89-13.05,13.56
				c0,7.1,5.95,12.99,13.05,12.99C523.33,424.17,529.9,418.28,529.9,411.18z"/>
		</g>
		<g>
			<path fill="#00BEC9" d="M745.59,409.33h36.42l-100.96-89.24l-22.68,20.05L525.21,222.46L392.05,340.14l-22.67-20.05
				l-100.96,89.24h36.37v98.66c-55.78,23.32-88.79,47.64-90.13,48.46c0.96,0.01,68.15-30.26,166.54-47.25v-6.79l-0.23-0.23
				c-6.52-1.79-11.25-8.25-11.25-14.77c0-9.46,7.67-17.14,16.56-17.14c9.46,0,16.56,7.68,16.56,17.14c0,6.52-4.16,12.98-10.68,14.77
				c-0.05,0.05-0.07,0.07-0.11,0.11v5.11c10.93-1.73,22.21-3.29,33.81-4.62v-30.72l-30.7-31.33c-3.57,2.36-7.67,3.57-11.83,3.57
				c-12.98,0-23.65-10.67-23.65-23.65c0-12.99,10.67-23.03,23.65-23.03c12.99,0,23.61,10.04,23.61,23.03
				c0,4.15-1.16,7.67-2.95,11.25l34.86,34.22v35.28c11.56-1.12,23.4-2.01,35.48-2.59v-22.59l-30.18-30.18v-70.92
				c-10.61-2.31-18.86-11.77-18.86-23.03c0-12.98,10.61-23.6,23.6-23.6c13.04,0,23.08,10.62,23.08,23.6
				c0,10.04-5.89,18.93-15.35,21.3v67.34l30.7,30.12v27.44c7.4-0.23,14.89-0.34,22.45-0.33v-64.91
				c-10.05-2.36-17.14-11.25-17.14-21.87c0-13.56,10.61-23.6,23.66-23.6c12.98,0,23.65,10.04,23.65,23.6
				c0,10.62-7.15,19.51-17.19,21.87v64.91c7.78,0,15.47,0.12,23.08,0.37v-18.59l30.12-30.76v-65.55
				c-8.891-2.94-15.351-11.83-15.351-21.87c0-12.99,10.62-23.66,23.03-23.66c12.98,0,23.65,10.67,23.65,23.66
				c0,11.25-7.67,20.66-18.29,23.02v70.34l-30.75,30.12v13.81c12.279,0.61,24.319,1.53,36.06,2.69v-44.83l35.431-35.49
				c-1.79-2.94-2.36-6.46-2.36-10.04c0-12.4,10.04-23.6,23.02-23.6c13.04,0,23.66,11.2,23.66,23.6c0,12.99-10.62,23.66-23.66,23.66
				c-4.729,0-8.89-1.79-12.35-3.57l-31.39,30.75v40.85c12.189,1.41,24.04,3.07,35.489,4.93v-5.04c-6.52-2.37-11.25-8.25-11.25-15.35
				c0-9.46,7.15-17.14,16.561-17.14c8.83,0,16.56,7.68,16.56,17.14c0,7.1-4.16,12.98-11.2,15.35v6.84
				c97.15,17.07,163.311,46.87,164.25,46.85c-1.18-0.73-27.04-19.76-71.47-40.26V409.33z"/>
		</g>
		<g>
			<path fill="#00BEC9" d="M650.39,424.8c7.73,0,13.62-6.52,13.62-13.62c0-7.09-5.89-12.98-13.62-12.98
				c-7.04,0-12.979,5.89-12.979,12.98C637.41,418.28,643.35,424.8,650.39,424.8z"/>
		</g>
		<g>
			<path fill="#00BEC9" d="M461.93,352.09c0-7.67-5.89-13.56-13.04-13.56c-7.04,0-12.99,5.89-12.99,13.56
				c0,7.1,5.95,12.99,12.99,12.99C456.04,365.08,461.93,359.19,461.93,352.09z"/>
		</g>
		<g>
			<path fill="#00BEC9" d="M395.74,487.41c0-5.31-4.15-9.46-9.46-9.46c-4.73,0-8.89,4.15-8.89,9.46c0,4.73,4.16,9.46,8.89,9.46
				C391.59,496.87,395.74,492.14,395.74,487.41z"/>
		</g>
		<g>
			<path fill="#00BEC9" d="M597.19,361.56c0-7.1-5.891-13.62-13.561-13.62c-6.53,0-12.99,6.52-12.99,13.62s6.46,12.98,12.99,12.98
				C591.3,374.54,597.19,368.66,597.19,361.56z"/>
		</g>
		<g>
			<path fill="#00BEC9" d="M370.35,420.65c0,7.67,5.89,13.56,12.98,13.56c7.68,0,12.99-5.89,12.99-13.56
				c0-7.1-5.31-12.99-12.99-12.99C376.24,407.66,370.35,413.55,370.35,420.65z"/>
		</g>
	</g>
	<g display="inline">
		<path d="M212.241,638.305h-9.392c-0.184-4.972-0.184-21.913-0.184-51.008v-52.481h9.576V638.305z"/>
		<path d="M524.173,638.305c-6.077,0.185-24.307,0.368-54.322,0.185l-54.69-0.185v-0.553h-0.184V533.895h8.839v94.282h100.358
			V638.305z"/>
		<path d="M837.763,638.489c-5.156,0.184-23.202,0.184-54.322,0.184h-54.69v-0.553h-0.185V534.263h0.185v-0.184
			c5.524-0.185,26.885-0.185,64.081-0.185h44.932v9.208H737.404v32.226h65.555c-1.104,0-0.736,0,1.289,0
			c2.026,0.184,4.42,0.184,7.55,0.184h6.813c3.131,0,6.629,0,10.313-0.184v9.943l-91.52-0.185v43.458h100.358V638.489z"/>
	</g>
</g>
<g id="black_x5F_transparent_copy" display="none">
	<g display="inline">
		<path d="M108.037,669.695v18.06h20.877v-18.06h5.636v43.164h-5.636v-20.237h-20.877v20.237h-5.571v-43.164H108.037z"/>
		<path d="M175.278,697.105c0,11.463-7.941,16.458-15.434,16.458c-8.389,0-14.857-6.147-14.857-15.946
			c0-10.374,6.789-16.458,15.37-16.458C169.258,681.159,175.278,687.627,175.278,697.105z M150.686,697.426
			c0,6.788,3.906,11.911,9.414,11.911c5.379,0,9.414-5.059,9.414-12.039c0-5.252-2.626-11.912-9.286-11.912
			S150.686,691.533,150.686,697.426z"/>
		<path d="M185.586,690.253c0-3.202-0.064-5.828-0.256-8.39h4.931l0.256,4.995h0.192c1.729-2.945,4.611-5.699,9.734-5.699
			c4.227,0,7.429,2.562,8.773,6.212h0.128c0.961-1.729,2.178-3.074,3.458-4.035c1.857-1.408,3.906-2.177,6.853-2.177
			c4.099,0,10.182,2.689,10.182,13.448v18.252h-5.507v-17.547c0-5.956-2.177-9.543-6.724-9.543c-3.202,0-5.7,2.37-6.661,5.124
			c-0.256,0.769-0.448,1.793-0.448,2.817v19.148h-5.507v-18.572c0-4.931-2.178-8.518-6.468-8.518c-3.522,0-6.084,2.818-6.98,5.636
			c-0.32,0.833-0.448,1.794-0.448,2.754v18.7h-5.508V690.253z"/>
		<path d="M245.335,698.386c0.128,7.621,4.995,10.759,10.631,10.759c4.035,0,6.468-0.704,8.582-1.601l0.96,4.034
			c-1.985,0.897-5.379,1.922-10.311,1.922c-9.542,0-15.242-6.276-15.242-15.626c0-9.351,5.507-16.715,14.537-16.715
			c10.119,0,12.809,8.901,12.809,14.602c0,1.152-0.128,2.049-0.192,2.625H245.335z M261.857,694.352
			c0.064-3.586-1.473-9.158-7.813-9.158c-5.7,0-8.197,5.252-8.646,9.158H261.857z"/>
		<path d="M311.422,712.859l-0.448-3.906h-0.192c-1.729,2.434-5.06,4.61-9.478,4.61c-6.276,0-9.479-4.419-9.479-8.901
			c0-7.493,6.661-11.592,18.636-11.527v-0.641c0-2.562-0.705-7.173-7.044-7.173c-2.882,0-5.892,0.897-8.069,2.306l-1.281-3.714
			c2.562-1.665,6.276-2.754,10.183-2.754c9.478,0,11.784,6.468,11.784,12.68v11.592c0,2.689,0.128,5.315,0.512,7.429H311.422z
			 M310.59,697.041c-6.148-0.128-13.128,0.961-13.128,6.98c0,3.65,2.434,5.38,5.315,5.38c4.035,0,6.596-2.562,7.493-5.188
			c0.192-0.576,0.32-1.217,0.32-1.793V697.041z"/>
		<path d="M354.265,704.406c0,3.202,0.064,6.02,0.256,8.453h-4.995l-0.32-5.06h-0.128c-1.473,2.498-4.739,5.764-10.247,5.764
			c-4.867,0-10.695-2.689-10.695-13.576v-18.124h5.636v17.163c0,5.892,1.793,9.862,6.917,9.862c3.778,0,6.404-2.626,7.429-5.123
			c0.32-0.833,0.512-1.857,0.512-2.882v-19.021h5.636V704.406z"/>
		<path d="M373.603,672.962v8.901h8.069v4.291h-8.069v16.715c0,3.842,1.089,6.02,4.227,6.02c1.473,0,2.562-0.192,3.266-0.384
			l0.256,4.227c-1.089,0.448-2.818,0.769-4.995,0.769c-2.626,0-4.739-0.833-6.084-2.37c-1.601-1.665-2.177-4.419-2.177-8.068
			v-16.907h-4.803v-4.291h4.803v-7.429L373.603,672.962z"/>
		<path d="M418.879,697.105c0,11.463-7.941,16.458-15.434,16.458c-8.389,0-14.857-6.147-14.857-15.946
			c0-10.374,6.788-16.458,15.37-16.458C412.859,681.159,418.879,687.627,418.879,697.105z M394.287,697.426
			c0,6.788,3.906,11.911,9.414,11.911c5.379,0,9.414-5.059,9.414-12.039c0-5.252-2.626-11.912-9.286-11.912
			S394.287,691.533,394.287,697.426z"/>
		<path d="M429.188,690.253c0-3.202-0.064-5.828-0.256-8.39h4.931l0.256,4.995h0.192c1.729-2.945,4.611-5.699,9.734-5.699
			c4.227,0,7.429,2.562,8.773,6.212h0.128c0.961-1.729,2.178-3.074,3.458-4.035c1.857-1.408,3.906-2.177,6.853-2.177
			c4.099,0,10.182,2.689,10.182,13.448v18.252h-5.507v-17.547c0-5.956-2.177-9.543-6.724-9.543c-3.202,0-5.7,2.37-6.661,5.124
			c-0.256,0.769-0.448,1.793-0.448,2.817v19.148h-5.507v-18.572c0-4.931-2.178-8.518-6.468-8.518c-3.522,0-6.084,2.818-6.98,5.636
			c-0.32,0.833-0.448,1.794-0.448,2.754v18.7h-5.508V690.253z"/>
		<path d="M502.961,712.859l-0.448-3.906h-0.192c-1.729,2.434-5.06,4.61-9.478,4.61c-6.276,0-9.479-4.419-9.479-8.901
			c0-7.493,6.661-11.592,18.636-11.527v-0.641c0-2.562-0.705-7.173-7.044-7.173c-2.882,0-5.892,0.897-8.069,2.306l-1.281-3.714
			c2.562-1.665,6.276-2.754,10.183-2.754c9.478,0,11.784,6.468,11.784,12.68v11.592c0,2.689,0.128,5.315,0.512,7.429H502.961z
			 M502.128,697.041c-6.148-0.128-13.128,0.961-13.128,6.98c0,3.65,2.434,5.38,5.315,5.38c4.035,0,6.596-2.562,7.493-5.188
			c0.192-0.576,0.32-1.217,0.32-1.793V697.041z"/>
		<path d="M526.399,672.962v8.901h8.069v4.291h-8.069v16.715c0,3.842,1.089,6.02,4.227,6.02c1.473,0,2.562-0.192,3.266-0.384
			l0.256,4.227c-1.089,0.448-2.818,0.769-4.995,0.769c-2.626,0-4.739-0.833-6.084-2.37c-1.601-1.665-2.177-4.419-2.177-8.068
			v-16.907h-4.803v-4.291h4.803v-7.429L526.399,672.962z"/>
		<path d="M550.285,673.154c0.063,1.921-1.346,3.458-3.587,3.458c-1.985,0-3.394-1.537-3.394-3.458c0-1.985,1.473-3.522,3.521-3.522
			C548.939,669.632,550.285,671.169,550.285,673.154z M544.009,712.859v-30.996h5.636v30.996H544.009z"/>
		<path d="M590.246,697.105c0,11.463-7.941,16.458-15.434,16.458c-8.39,0-14.858-6.147-14.858-15.946
			c0-10.374,6.789-16.458,15.37-16.458C584.227,681.159,590.246,687.627,590.246,697.105z M565.654,697.426
			c0,6.788,3.906,11.911,9.414,11.911c5.379,0,9.414-5.059,9.414-12.039c0-5.252-2.626-11.912-9.286-11.912
			S565.654,691.533,565.654,697.426z"/>
		<path d="M600.555,690.253c0-3.202-0.063-5.828-0.256-8.39h4.995l0.32,5.123h0.128c1.537-2.945,5.123-5.827,10.247-5.827
			c4.29,0,10.95,2.562,10.95,13.192v18.508h-5.635v-17.867c0-4.995-1.857-9.158-7.173-9.158c-3.715,0-6.597,2.626-7.557,5.764
			c-0.257,0.704-0.385,1.665-0.385,2.626v18.636h-5.636V690.253z"/>
		<path d="M673.238,712.859l-0.448-3.906h-0.192c-1.729,2.434-5.059,4.61-9.478,4.61c-6.276,0-9.479-4.419-9.479-8.901
			c0-7.493,6.66-11.592,18.636-11.527v-0.641c0-2.562-0.704-7.173-7.044-7.173c-2.882,0-5.892,0.897-8.069,2.306l-1.281-3.714
			c2.563-1.665,6.276-2.754,10.183-2.754c9.479,0,11.784,6.468,11.784,12.68v11.592c0,2.689,0.128,5.315,0.512,7.429H673.238z
			 M672.406,697.041c-6.148-0.128-13.129,0.961-13.129,6.98c0,3.65,2.434,5.38,5.315,5.38c4.035,0,6.597-2.562,7.493-5.188
			c0.191-0.576,0.32-1.217,0.32-1.793V697.041z"/>
		<path d="M696.676,672.962v8.901h8.069v4.291h-8.069v16.715c0,3.842,1.089,6.02,4.228,6.02c1.473,0,2.562-0.192,3.266-0.384
			l0.256,4.227c-1.088,0.448-2.817,0.769-4.995,0.769c-2.625,0-4.738-0.833-6.084-2.37c-1.601-1.665-2.177-4.419-2.177-8.068
			v-16.907h-4.804v-4.291h4.804v-7.429L696.676,672.962z"/>
		<path d="M737.34,673.154c0.063,1.921-1.345,3.458-3.587,3.458c-1.984,0-3.394-1.537-3.394-3.458c0-1.985,1.473-3.522,3.522-3.522
			C735.995,669.632,737.34,671.169,737.34,673.154z M731.063,712.859v-30.996h5.636v30.996H731.063z"/>
		<path d="M756.038,672.962v8.901h8.069v4.291h-8.069v16.715c0,3.842,1.089,6.02,4.228,6.02c1.473,0,2.562-0.192,3.266-0.384
			l0.256,4.227c-1.088,0.448-2.817,0.769-4.995,0.769c-2.625,0-4.738-0.833-6.084-2.37c-1.601-1.665-2.177-4.419-2.177-8.068
			v-16.907h-4.804v-4.291h4.804v-7.429L756.038,672.962z"/>
		<path d="M772.88,707.096c1.665,1.089,4.611,2.241,7.429,2.241c4.099,0,6.021-2.049,6.021-4.61c0-2.69-1.602-4.163-5.764-5.7
			c-5.572-1.985-8.197-5.06-8.197-8.773c0-4.995,4.034-9.094,10.694-9.094c3.139,0,5.892,0.896,7.621,1.921l-1.409,4.099
			c-1.217-0.769-3.458-1.793-6.34-1.793c-3.33,0-5.188,1.921-5.188,4.227c0,2.562,1.857,3.715,5.892,5.252
			c5.38,2.049,8.134,4.738,8.134,9.35c0,5.443-4.227,9.286-11.592,9.286c-3.394,0-6.532-0.833-8.709-2.113L772.88,707.096z"/>
		<path d="M818.73,712.859c0.128-2.113,0.256-5.251,0.256-8.005v-37.464h5.571v19.468h0.129c1.985-3.458,5.571-5.699,10.566-5.699
			c7.685,0,13.129,6.404,13.064,15.818c0,11.079-6.98,16.586-13.896,16.586c-4.483,0-8.069-1.729-10.375-5.827h-0.192l-0.256,5.123
			H818.73z M824.558,700.436c0,0.704,0.129,1.409,0.257,2.049c1.089,3.907,4.354,6.597,8.453,6.597
			c5.892,0,9.414-4.803,9.414-11.912c0-6.212-3.202-11.527-9.222-11.527c-3.843,0-7.429,2.626-8.582,6.917
			c-0.128,0.641-0.32,1.408-0.32,2.306V700.436z"/>
		<path d="M861.765,698.386c0.128,7.621,4.995,10.759,10.631,10.759c4.034,0,6.468-0.704,8.581-1.601l0.961,4.034
			c-1.985,0.897-5.38,1.922-10.311,1.922c-9.543,0-15.242-6.276-15.242-15.626c0-9.351,5.508-16.715,14.537-16.715
			c10.119,0,12.809,8.901,12.809,14.602c0,1.152-0.128,2.049-0.192,2.625H861.765z M878.287,694.352
			c0.063-3.586-1.474-9.158-7.813-9.158c-5.699,0-8.197,5.252-8.646,9.158H878.287z"/>
		<path d="M893.142,707.096c1.665,1.089,4.611,2.241,7.429,2.241c4.099,0,6.021-2.049,6.021-4.61c0-2.69-1.602-4.163-5.764-5.7
			c-5.572-1.985-8.197-5.06-8.197-8.773c0-4.995,4.034-9.094,10.694-9.094c3.139,0,5.892,0.896,7.621,1.921l-1.409,4.099
			c-1.217-0.769-3.458-1.793-6.34-1.793c-3.33,0-5.188,1.921-5.188,4.227c0,2.562,1.857,3.715,5.892,5.252
			c5.38,2.049,8.134,4.738,8.134,9.35c0,5.443-4.227,9.286-11.592,9.286c-3.394,0-6.532-0.833-8.709-2.113L893.142,707.096z"/>
		<path d="M929.26,672.962v8.901h8.069v4.291h-8.069v16.715c0,3.842,1.089,6.02,4.228,6.02c1.473,0,2.562-0.192,3.266-0.384
			l0.256,4.227c-1.088,0.448-2.817,0.769-4.995,0.769c-2.625,0-4.738-0.833-6.084-2.37c-1.601-1.665-2.177-4.419-2.177-8.068
			v-16.907h-4.804v-4.291h4.804v-7.429L929.26,672.962z"/>
		<path d="M962.303,709.529c0-2.369,1.602-4.034,3.843-4.034s3.778,1.665,3.778,4.034c0,2.306-1.473,4.034-3.843,4.034
			C963.84,713.563,962.303,711.835,962.303,709.529z"/>
		<path d="M978.76,709.529c0-2.369,1.602-4.034,3.843-4.034s3.778,1.665,3.778,4.034c0,2.306-1.473,4.034-3.843,4.034
			C980.297,713.563,978.76,711.835,978.76,709.529z"/>
		<path d="M995.217,709.529c0-2.369,1.602-4.034,3.843-4.034s3.778,1.665,3.778,4.034c0,2.306-1.473,4.034-3.843,4.034
			C996.754,713.563,995.217,711.835,995.217,709.529z"/>
		<path d="M1011.674,709.529c0-2.369,1.602-4.034,3.843-4.034s3.778,1.665,3.778,4.034c0,2.306-1.473,4.034-3.843,4.034
			C1013.211,713.563,1011.674,711.835,1011.674,709.529z"/>
	</g>
	<g display="inline">
		<g>
			<path d="M656.91,487.41c0-5.31-4.101-9.46-9.46-9.46c-5.311,0-9.41,4.15-9.41,9.46c0,4.73,4.1,9.46,9.41,9.46
				C652.81,496.87,656.91,492.14,656.91,487.41z"/>
		</g>
		<g>
			<path d="M529.9,411.18c0-7.67-6.57-13.56-13.61-13.56c-7.1,0-13.05,5.89-13.05,13.56c0,7.1,5.95,12.99,13.05,12.99
				C523.33,424.17,529.9,418.28,529.9,411.18z"/>
		</g>
		<g>
			<path d="M745.59,409.33h36.42l-100.96-89.24l-22.68,20.05L525.21,222.46L392.05,340.14l-22.67-20.05l-100.96,89.24h36.37v98.66
				c-55.78,23.32-88.79,47.64-90.13,48.46c0.96,0.01,68.15-30.26,166.54-47.25v-6.79l-0.23-0.23c-6.52-1.79-11.25-8.25-11.25-14.77
				c0-9.46,7.67-17.14,16.56-17.14c9.46,0,16.56,7.68,16.56,17.14c0,6.52-4.16,12.98-10.68,14.77c-0.05,0.05-0.07,0.07-0.11,0.11
				v5.11c10.93-1.73,22.21-3.29,33.81-4.62v-30.72l-30.7-31.33c-3.57,2.36-7.67,3.57-11.83,3.57c-12.98,0-23.65-10.67-23.65-23.65
				c0-12.99,10.67-23.03,23.65-23.03c12.99,0,23.61,10.04,23.61,23.03c0,4.15-1.16,7.67-2.95,11.25l34.86,34.22v35.28
				c11.56-1.12,23.4-2.01,35.48-2.59v-22.59l-30.18-30.18v-70.92c-10.61-2.31-18.86-11.77-18.86-23.03c0-12.98,10.61-23.6,23.6-23.6
				c13.04,0,23.08,10.62,23.08,23.6c0,10.04-5.89,18.93-15.35,21.3v67.34l30.7,30.12v27.44c7.4-0.23,14.89-0.34,22.45-0.33v-64.91
				c-10.05-2.36-17.14-11.25-17.14-21.87c0-13.56,10.61-23.6,23.66-23.6c12.98,0,23.65,10.04,23.65,23.6
				c0,10.62-7.15,19.51-17.19,21.87v64.91c7.78,0,15.47,0.12,23.08,0.37v-18.59l30.12-30.76v-65.55
				c-8.891-2.94-15.351-11.83-15.351-21.87c0-12.99,10.62-23.66,23.03-23.66c12.98,0,23.65,10.67,23.65,23.66
				c0,11.25-7.67,20.66-18.29,23.02v70.34l-30.75,30.12v13.81c12.279,0.61,24.319,1.53,36.06,2.69v-44.83l35.431-35.49
				c-1.79-2.94-2.36-6.46-2.36-10.04c0-12.4,10.04-23.6,23.02-23.6c13.04,0,23.66,11.2,23.66,23.6c0,12.99-10.62,23.66-23.66,23.66
				c-4.729,0-8.89-1.79-12.35-3.57l-31.39,30.75v40.85c12.189,1.41,24.04,3.07,35.489,4.93v-5.04c-6.52-2.37-11.25-8.25-11.25-15.35
				c0-9.46,7.15-17.14,16.561-17.14c8.83,0,16.56,7.68,16.56,17.14c0,7.1-4.16,12.98-11.2,15.35v6.84
				c97.15,17.07,163.311,46.87,164.25,46.85c-1.18-0.73-27.04-19.76-71.47-40.26V409.33z"/>
		</g>
		<g>
			<path d="M650.39,424.8c7.73,0,13.62-6.52,13.62-13.62c0-7.09-5.89-12.98-13.62-12.98c-7.04,0-12.979,5.89-12.979,12.98
				C637.41,418.28,643.35,424.8,650.39,424.8z"/>
		</g>
		<g>
			<path d="M461.93,352.09c0-7.67-5.89-13.56-13.04-13.56c-7.04,0-12.99,5.89-12.99,13.56c0,7.1,5.95,12.99,12.99,12.99
				C456.04,365.08,461.93,359.19,461.93,352.09z"/>
		</g>
		<g>
			<path d="M395.74,487.41c0-5.31-4.15-9.46-9.46-9.46c-4.73,0-8.89,4.15-8.89,9.46c0,4.73,4.16,9.46,8.89,9.46
				C391.59,496.87,395.74,492.14,395.74,487.41z"/>
		</g>
		<g>
			<path d="M597.19,361.56c0-7.1-5.891-13.62-13.561-13.62c-6.53,0-12.99,6.52-12.99,13.62s6.46,12.98,12.99,12.98
				C591.3,374.54,597.19,368.66,597.19,361.56z"/>
		</g>
		<g>
			<path d="M370.35,420.65c0,7.67,5.89,13.56,12.98,13.56c7.68,0,12.99-5.89,12.99-13.56c0-7.1-5.31-12.99-12.99-12.99
				C376.24,407.66,370.35,413.55,370.35,420.65z"/>
		</g>
	</g>
	<g display="inline">
		<path d="M212.241,638.305h-9.392c-0.184-4.972-0.184-21.913-0.184-51.008v-52.481h9.576V638.305z"/>
		<path d="M524.173,638.305c-6.077,0.185-24.307,0.368-54.322,0.185l-54.69-0.185v-0.553h-0.184V533.895h8.839v94.282h100.358
			V638.305z"/>
		<path d="M837.763,638.489c-5.156,0.184-23.202,0.184-54.322,0.184h-54.69v-0.553h-0.185V534.263h0.185v-0.184
			c5.524-0.185,26.885-0.185,64.081-0.185h44.932v9.208H737.404v32.226h65.555c-1.104,0-0.736,0,1.289,0
			c2.026,0.184,4.42,0.184,7.55,0.184h6.813c3.131,0,6.629,0,10.313-0.184v9.943l-91.52-0.185v43.458h100.358V638.489z"/>
	</g>
</g>
<g id="white_x5F_transparent_copy" display="none">
	<g display="inline">
		<path fill="#FFFFFF" d="M108.037,669.695v18.06h20.877v-18.06h5.636v43.164h-5.636v-20.237h-20.877v20.237h-5.571v-43.164H108.037
			z"/>
		<path fill="#FFFFFF" d="M175.278,697.105c0,11.463-7.941,16.458-15.434,16.458c-8.389,0-14.857-6.147-14.857-15.946
			c0-10.374,6.789-16.458,15.37-16.458C169.258,681.159,175.278,687.627,175.278,697.105z M150.686,697.426
			c0,6.788,3.906,11.911,9.414,11.911c5.379,0,9.414-5.059,9.414-12.039c0-5.252-2.626-11.912-9.286-11.912
			S150.686,691.533,150.686,697.426z"/>
		<path fill="#FFFFFF" d="M185.586,690.253c0-3.202-0.064-5.828-0.256-8.39h4.931l0.256,4.995h0.192
			c1.729-2.945,4.611-5.699,9.734-5.699c4.227,0,7.429,2.562,8.773,6.212h0.128c0.961-1.729,2.178-3.074,3.458-4.035
			c1.857-1.408,3.906-2.177,6.853-2.177c4.099,0,10.182,2.689,10.182,13.448v18.252h-5.507v-17.547c0-5.956-2.177-9.543-6.724-9.543
			c-3.202,0-5.7,2.37-6.661,5.124c-0.256,0.769-0.448,1.793-0.448,2.817v19.148h-5.507v-18.572c0-4.931-2.178-8.518-6.468-8.518
			c-3.522,0-6.084,2.818-6.98,5.636c-0.32,0.833-0.448,1.794-0.448,2.754v18.7h-5.508V690.253z"/>
		<path fill="#FFFFFF" d="M245.335,698.386c0.128,7.621,4.995,10.759,10.631,10.759c4.035,0,6.468-0.704,8.582-1.601l0.96,4.034
			c-1.985,0.897-5.379,1.922-10.311,1.922c-9.542,0-15.242-6.276-15.242-15.626c0-9.351,5.507-16.715,14.537-16.715
			c10.119,0,12.809,8.901,12.809,14.602c0,1.152-0.128,2.049-0.192,2.625H245.335z M261.857,694.352
			c0.064-3.586-1.473-9.158-7.813-9.158c-5.7,0-8.197,5.252-8.646,9.158H261.857z"/>
		<path fill="#FFFFFF" d="M311.422,712.859l-0.448-3.906h-0.192c-1.729,2.434-5.06,4.61-9.478,4.61
			c-6.276,0-9.479-4.419-9.479-8.901c0-7.493,6.661-11.592,18.636-11.527v-0.641c0-2.562-0.705-7.173-7.044-7.173
			c-2.882,0-5.892,0.897-8.069,2.306l-1.281-3.714c2.562-1.665,6.276-2.754,10.183-2.754c9.478,0,11.784,6.468,11.784,12.68v11.592
			c0,2.689,0.128,5.315,0.512,7.429H311.422z M310.59,697.041c-6.148-0.128-13.128,0.961-13.128,6.98c0,3.65,2.434,5.38,5.315,5.38
			c4.035,0,6.596-2.562,7.493-5.188c0.192-0.576,0.32-1.217,0.32-1.793V697.041z"/>
		<path fill="#FFFFFF" d="M354.265,704.406c0,3.202,0.064,6.02,0.256,8.453h-4.995l-0.32-5.06h-0.128
			c-1.473,2.498-4.739,5.764-10.247,5.764c-4.867,0-10.695-2.689-10.695-13.576v-18.124h5.636v17.163
			c0,5.892,1.793,9.862,6.917,9.862c3.778,0,6.404-2.626,7.429-5.123c0.32-0.833,0.512-1.857,0.512-2.882v-19.021h5.636V704.406z"/>
		<path fill="#FFFFFF" d="M373.603,672.962v8.901h8.069v4.291h-8.069v16.715c0,3.842,1.089,6.02,4.227,6.02
			c1.473,0,2.562-0.192,3.266-0.384l0.256,4.227c-1.089,0.448-2.818,0.769-4.995,0.769c-2.626,0-4.739-0.833-6.084-2.37
			c-1.601-1.665-2.177-4.419-2.177-8.068v-16.907h-4.803v-4.291h4.803v-7.429L373.603,672.962z"/>
		<path fill="#FFFFFF" d="M418.879,697.105c0,11.463-7.941,16.458-15.434,16.458c-8.389,0-14.857-6.147-14.857-15.946
			c0-10.374,6.788-16.458,15.37-16.458C412.859,681.159,418.879,687.627,418.879,697.105z M394.287,697.426
			c0,6.788,3.906,11.911,9.414,11.911c5.379,0,9.414-5.059,9.414-12.039c0-5.252-2.626-11.912-9.286-11.912
			S394.287,691.533,394.287,697.426z"/>
		<path fill="#FFFFFF" d="M429.188,690.253c0-3.202-0.064-5.828-0.256-8.39h4.931l0.256,4.995h0.192
			c1.729-2.945,4.611-5.699,9.734-5.699c4.227,0,7.429,2.562,8.773,6.212h0.128c0.961-1.729,2.178-3.074,3.458-4.035
			c1.857-1.408,3.906-2.177,6.853-2.177c4.099,0,10.182,2.689,10.182,13.448v18.252h-5.507v-17.547c0-5.956-2.177-9.543-6.724-9.543
			c-3.202,0-5.7,2.37-6.661,5.124c-0.256,0.769-0.448,1.793-0.448,2.817v19.148h-5.507v-18.572c0-4.931-2.178-8.518-6.468-8.518
			c-3.522,0-6.084,2.818-6.98,5.636c-0.32,0.833-0.448,1.794-0.448,2.754v18.7h-5.508V690.253z"/>
		<path fill="#FFFFFF" d="M502.961,712.859l-0.448-3.906h-0.192c-1.729,2.434-5.06,4.61-9.478,4.61
			c-6.276,0-9.479-4.419-9.479-8.901c0-7.493,6.661-11.592,18.636-11.527v-0.641c0-2.562-0.705-7.173-7.044-7.173
			c-2.882,0-5.892,0.897-8.069,2.306l-1.281-3.714c2.562-1.665,6.276-2.754,10.183-2.754c9.478,0,11.784,6.468,11.784,12.68v11.592
			c0,2.689,0.128,5.315,0.512,7.429H502.961z M502.128,697.041c-6.148-0.128-13.128,0.961-13.128,6.98c0,3.65,2.434,5.38,5.315,5.38
			c4.035,0,6.596-2.562,7.493-5.188c0.192-0.576,0.32-1.217,0.32-1.793V697.041z"/>
		<path fill="#FFFFFF" d="M526.399,672.962v8.901h8.069v4.291h-8.069v16.715c0,3.842,1.089,6.02,4.227,6.02
			c1.473,0,2.562-0.192,3.266-0.384l0.256,4.227c-1.089,0.448-2.818,0.769-4.995,0.769c-2.626,0-4.739-0.833-6.084-2.37
			c-1.601-1.665-2.177-4.419-2.177-8.068v-16.907h-4.803v-4.291h4.803v-7.429L526.399,672.962z"/>
		<path fill="#FFFFFF" d="M550.285,673.154c0.063,1.921-1.346,3.458-3.587,3.458c-1.985,0-3.394-1.537-3.394-3.458
			c0-1.985,1.473-3.522,3.521-3.522C548.939,669.632,550.285,671.169,550.285,673.154z M544.009,712.859v-30.996h5.636v30.996
			H544.009z"/>
		<path fill="#FFFFFF" d="M590.246,697.105c0,11.463-7.941,16.458-15.434,16.458c-8.39,0-14.858-6.147-14.858-15.946
			c0-10.374,6.789-16.458,15.37-16.458C584.227,681.159,590.246,687.627,590.246,697.105z M565.654,697.426
			c0,6.788,3.906,11.911,9.414,11.911c5.379,0,9.414-5.059,9.414-12.039c0-5.252-2.626-11.912-9.286-11.912
			S565.654,691.533,565.654,697.426z"/>
		<path fill="#FFFFFF" d="M600.555,690.253c0-3.202-0.063-5.828-0.256-8.39h4.995l0.32,5.123h0.128
			c1.537-2.945,5.123-5.827,10.247-5.827c4.29,0,10.95,2.562,10.95,13.192v18.508h-5.635v-17.867c0-4.995-1.857-9.158-7.173-9.158
			c-3.715,0-6.597,2.626-7.557,5.764c-0.257,0.704-0.385,1.665-0.385,2.626v18.636h-5.636V690.253z"/>
		<path fill="#FFFFFF" d="M673.238,712.859l-0.448-3.906h-0.192c-1.729,2.434-5.059,4.61-9.478,4.61
			c-6.276,0-9.479-4.419-9.479-8.901c0-7.493,6.66-11.592,18.636-11.527v-0.641c0-2.562-0.704-7.173-7.044-7.173
			c-2.882,0-5.892,0.897-8.069,2.306l-1.281-3.714c2.563-1.665,6.276-2.754,10.183-2.754c9.479,0,11.784,6.468,11.784,12.68v11.592
			c0,2.689,0.128,5.315,0.512,7.429H673.238z M672.406,697.041c-6.148-0.128-13.129,0.961-13.129,6.98c0,3.65,2.434,5.38,5.315,5.38
			c4.035,0,6.597-2.562,7.493-5.188c0.191-0.576,0.32-1.217,0.32-1.793V697.041z"/>
		<path fill="#FFFFFF" d="M696.676,672.962v8.901h8.069v4.291h-8.069v16.715c0,3.842,1.089,6.02,4.228,6.02
			c1.473,0,2.562-0.192,3.266-0.384l0.256,4.227c-1.088,0.448-2.817,0.769-4.995,0.769c-2.625,0-4.738-0.833-6.084-2.37
			c-1.601-1.665-2.177-4.419-2.177-8.068v-16.907h-4.804v-4.291h4.804v-7.429L696.676,672.962z"/>
		<path fill="#FFFFFF" d="M737.34,673.154c0.063,1.921-1.345,3.458-3.587,3.458c-1.984,0-3.394-1.537-3.394-3.458
			c0-1.985,1.473-3.522,3.522-3.522C735.995,669.632,737.34,671.169,737.34,673.154z M731.063,712.859v-30.996h5.636v30.996H731.063
			z"/>
		<path fill="#FFFFFF" d="M756.038,672.962v8.901h8.069v4.291h-8.069v16.715c0,3.842,1.089,6.02,4.228,6.02
			c1.473,0,2.562-0.192,3.266-0.384l0.256,4.227c-1.088,0.448-2.817,0.769-4.995,0.769c-2.625,0-4.738-0.833-6.084-2.37
			c-1.601-1.665-2.177-4.419-2.177-8.068v-16.907h-4.804v-4.291h4.804v-7.429L756.038,672.962z"/>
		<path fill="#FFFFFF" d="M772.88,707.096c1.665,1.089,4.611,2.241,7.429,2.241c4.099,0,6.021-2.049,6.021-4.61
			c0-2.69-1.602-4.163-5.764-5.7c-5.572-1.985-8.197-5.06-8.197-8.773c0-4.995,4.034-9.094,10.694-9.094
			c3.139,0,5.892,0.896,7.621,1.921l-1.409,4.099c-1.217-0.769-3.458-1.793-6.34-1.793c-3.33,0-5.188,1.921-5.188,4.227
			c0,2.562,1.857,3.715,5.892,5.252c5.38,2.049,8.134,4.738,8.134,9.35c0,5.443-4.227,9.286-11.592,9.286
			c-3.394,0-6.532-0.833-8.709-2.113L772.88,707.096z"/>
		<path fill="#FFFFFF" d="M818.73,712.859c0.128-2.113,0.256-5.251,0.256-8.005v-37.464h5.571v19.468h0.129
			c1.985-3.458,5.571-5.699,10.566-5.699c7.685,0,13.129,6.404,13.064,15.818c0,11.079-6.98,16.586-13.896,16.586
			c-4.483,0-8.069-1.729-10.375-5.827h-0.192l-0.256,5.123H818.73z M824.558,700.436c0,0.704,0.129,1.409,0.257,2.049
			c1.089,3.907,4.354,6.597,8.453,6.597c5.892,0,9.414-4.803,9.414-11.912c0-6.212-3.202-11.527-9.222-11.527
			c-3.843,0-7.429,2.626-8.582,6.917c-0.128,0.641-0.32,1.408-0.32,2.306V700.436z"/>
		<path fill="#FFFFFF" d="M861.765,698.386c0.128,7.621,4.995,10.759,10.631,10.759c4.034,0,6.468-0.704,8.581-1.601l0.961,4.034
			c-1.985,0.897-5.38,1.922-10.311,1.922c-9.543,0-15.242-6.276-15.242-15.626c0-9.351,5.508-16.715,14.537-16.715
			c10.119,0,12.809,8.901,12.809,14.602c0,1.152-0.128,2.049-0.192,2.625H861.765z M878.287,694.352
			c0.063-3.586-1.474-9.158-7.813-9.158c-5.699,0-8.197,5.252-8.646,9.158H878.287z"/>
		<path fill="#FFFFFF" d="M893.142,707.096c1.665,1.089,4.611,2.241,7.429,2.241c4.099,0,6.021-2.049,6.021-4.61
			c0-2.69-1.602-4.163-5.764-5.7c-5.572-1.985-8.197-5.06-8.197-8.773c0-4.995,4.034-9.094,10.694-9.094
			c3.139,0,5.892,0.896,7.621,1.921l-1.409,4.099c-1.217-0.769-3.458-1.793-6.34-1.793c-3.33,0-5.188,1.921-5.188,4.227
			c0,2.562,1.857,3.715,5.892,5.252c5.38,2.049,8.134,4.738,8.134,9.35c0,5.443-4.227,9.286-11.592,9.286
			c-3.394,0-6.532-0.833-8.709-2.113L893.142,707.096z"/>
		<path fill="#FFFFFF" d="M929.26,672.962v8.901h8.069v4.291h-8.069v16.715c0,3.842,1.089,6.02,4.228,6.02
			c1.473,0,2.562-0.192,3.266-0.384l0.256,4.227c-1.088,0.448-2.817,0.769-4.995,0.769c-2.625,0-4.738-0.833-6.084-2.37
			c-1.601-1.665-2.177-4.419-2.177-8.068v-16.907h-4.804v-4.291h4.804v-7.429L929.26,672.962z"/>
		<path fill="#FFFFFF" d="M962.303,709.529c0-2.369,1.602-4.034,3.843-4.034s3.778,1.665,3.778,4.034
			c0,2.306-1.473,4.034-3.843,4.034C963.84,713.563,962.303,711.835,962.303,709.529z"/>
		<path fill="#FFFFFF" d="M978.76,709.529c0-2.369,1.602-4.034,3.843-4.034s3.778,1.665,3.778,4.034
			c0,2.306-1.473,4.034-3.843,4.034C980.297,713.563,978.76,711.835,978.76,709.529z"/>
		<path fill="#FFFFFF" d="M995.217,709.529c0-2.369,1.602-4.034,3.843-4.034s3.778,1.665,3.778,4.034
			c0,2.306-1.473,4.034-3.843,4.034C996.754,713.563,995.217,711.835,995.217,709.529z"/>
		<path fill="#FFFFFF" d="M1011.674,709.529c0-2.369,1.602-4.034,3.843-4.034s3.778,1.665,3.778,4.034
			c0,2.306-1.473,4.034-3.843,4.034C1013.211,713.563,1011.674,711.835,1011.674,709.529z"/>
	</g>
	<g display="inline">
		<g>
			<path fill="#FFFFFF" d="M656.91,487.41c0-5.31-4.101-9.46-9.46-9.46c-5.311,0-9.41,4.15-9.41,9.46c0,4.73,4.1,9.46,9.41,9.46
				C652.81,496.87,656.91,492.14,656.91,487.41z"/>
		</g>
		<g>
			<path fill="#FFFFFF" d="M529.9,411.18c0-7.67-6.57-13.56-13.61-13.56c-7.1,0-13.05,5.89-13.05,13.56
				c0,7.1,5.95,12.99,13.05,12.99C523.33,424.17,529.9,418.28,529.9,411.18z"/>
		</g>
		<g>
			<path fill="#FFFFFF" d="M745.59,409.33h36.42l-100.96-89.24l-22.68,20.05L525.21,222.46L392.05,340.14l-22.67-20.05
				l-100.96,89.24h36.37v98.66c-55.78,23.32-88.79,47.64-90.13,48.46c0.96,0.01,68.15-30.26,166.54-47.25v-6.79l-0.23-0.23
				c-6.52-1.79-11.25-8.25-11.25-14.77c0-9.46,7.67-17.14,16.56-17.14c9.46,0,16.56,7.68,16.56,17.14c0,6.52-4.16,12.98-10.68,14.77
				c-0.05,0.05-0.07,0.07-0.11,0.11v5.11c10.93-1.73,22.21-3.29,33.81-4.62v-30.72l-30.7-31.33c-3.57,2.36-7.67,3.57-11.83,3.57
				c-12.98,0-23.65-10.67-23.65-23.65c0-12.99,10.67-23.03,23.65-23.03c12.99,0,23.61,10.04,23.61,23.03
				c0,4.15-1.16,7.67-2.95,11.25l34.86,34.22v35.28c11.56-1.12,23.4-2.01,35.48-2.59v-22.59l-30.18-30.18v-70.92
				c-10.61-2.31-18.86-11.77-18.86-23.03c0-12.98,10.61-23.6,23.6-23.6c13.04,0,23.08,10.62,23.08,23.6
				c0,10.04-5.89,18.93-15.35,21.3v67.34l30.7,30.12v27.44c7.4-0.23,14.89-0.34,22.45-0.33v-64.91
				c-10.05-2.36-17.14-11.25-17.14-21.87c0-13.56,10.61-23.6,23.66-23.6c12.98,0,23.65,10.04,23.65,23.6
				c0,10.62-7.15,19.51-17.19,21.87v64.91c7.78,0,15.47,0.12,23.08,0.37v-18.59l30.12-30.76v-65.55
				c-8.891-2.94-15.351-11.83-15.351-21.87c0-12.99,10.62-23.66,23.03-23.66c12.98,0,23.65,10.67,23.65,23.66
				c0,11.25-7.67,20.66-18.29,23.02v70.34l-30.75,30.12v13.81c12.279,0.61,24.319,1.53,36.06,2.69v-44.83l35.431-35.49
				c-1.79-2.94-2.36-6.46-2.36-10.04c0-12.4,10.04-23.6,23.02-23.6c13.04,0,23.66,11.2,23.66,23.6c0,12.99-10.62,23.66-23.66,23.66
				c-4.729,0-8.89-1.79-12.35-3.57l-31.39,30.75v40.85c12.189,1.41,24.04,3.07,35.489,4.93v-5.04c-6.52-2.37-11.25-8.25-11.25-15.35
				c0-9.46,7.15-17.14,16.561-17.14c8.83,0,16.56,7.68,16.56,17.14c0,7.1-4.16,12.98-11.2,15.35v6.84
				c97.15,17.07,163.311,46.87,164.25,46.85c-1.18-0.73-27.04-19.76-71.47-40.26V409.33z"/>
		</g>
		<g>
			<path fill="#FFFFFF" d="M650.39,424.8c7.73,0,13.62-6.52,13.62-13.62c0-7.09-5.89-12.98-13.62-12.98
				c-7.04,0-12.979,5.89-12.979,12.98C637.41,418.28,643.35,424.8,650.39,424.8z"/>
		</g>
		<g>
			<path fill="#FFFFFF" d="M461.93,352.09c0-7.67-5.89-13.56-13.04-13.56c-7.04,0-12.99,5.89-12.99,13.56
				c0,7.1,5.95,12.99,12.99,12.99C456.04,365.08,461.93,359.19,461.93,352.09z"/>
		</g>
		<g>
			<path fill="#FFFFFF" d="M395.74,487.41c0-5.31-4.15-9.46-9.46-9.46c-4.73,0-8.89,4.15-8.89,9.46c0,4.73,4.16,9.46,8.89,9.46
				C391.59,496.87,395.74,492.14,395.74,487.41z"/>
		</g>
		<g>
			<path fill="#FFFFFF" d="M597.19,361.56c0-7.1-5.891-13.62-13.561-13.62c-6.53,0-12.99,6.52-12.99,13.62s6.46,12.98,12.99,12.98
				C591.3,374.54,597.19,368.66,597.19,361.56z"/>
		</g>
		<g>
			<path fill="#FFFFFF" d="M370.35,420.65c0,7.67,5.89,13.56,12.98,13.56c7.68,0,12.99-5.89,12.99-13.56
				c0-7.1-5.31-12.99-12.99-12.99C376.24,407.66,370.35,413.55,370.35,420.65z"/>
		</g>
	</g>
	<g display="inline">
		<path fill="#FFFFFF" d="M212.241,638.305h-9.392c-0.184-4.972-0.184-21.913-0.184-51.008v-52.481h9.576V638.305z"/>
		<path fill="#FFFFFF" d="M524.173,638.305c-6.077,0.185-24.307,0.368-54.322,0.185l-54.69-0.185v-0.553h-0.184V533.895h8.839
			v94.282h100.358V638.305z"/>
		<path fill="#FFFFFF" d="M837.763,638.489c-5.156,0.184-23.202,0.184-54.322,0.184h-54.69v-0.553h-0.185V534.263h0.185v-0.184
			c5.524-0.185,26.885-0.185,64.081-0.185h44.932v9.208H737.404v32.226h65.555c-1.104,0-0.736,0,1.289,0
			c2.026,0.184,4.42,0.184,7.55,0.184h6.813c3.131,0,6.629,0,10.313-0.184v9.943l-91.52-0.185v43.458h100.358V638.489z"/>
	</g>
</g>
<g id="Transparent" display="none">
	
		<text transform="matrix(1 0 0 1 97.5981 712.8594)" display="inline" fill="#00BEC9" font-family="'MyriadPro-Regular'" font-size="64.0387" letter-spacing="3">Home automation at its best ....</text>
	<g display="inline">
		<path fill="#00BEC9" d="M656.91,487.41c0-5.31-4.101-9.46-9.46-9.46c-5.311,0-9.41,4.15-9.41,9.46c0,4.73,4.1,9.46,9.41,9.46
			C652.81,496.87,656.91,492.14,656.91,487.41z"/>
		<path fill="#00BEC9" d="M529.9,411.18c0-7.67-6.57-13.56-13.61-13.56c-7.1,0-13.05,5.89-13.05,13.56c0,7.1,5.95,12.99,13.05,12.99
			C523.33,424.17,529.9,418.28,529.9,411.18z"/>
		<path fill="#00BEC9" d="M745.59,409.33h36.42l-100.96-89.24l-22.68,20.05L525.21,222.46L392.05,340.14l-22.67-20.05l-100.96,89.24
			h36.37v98.66c-55.78,23.32-88.79,47.64-90.13,48.46c0.96,0.01,68.15-30.26,166.54-47.25v-6.79l-0.23-0.23
			c-6.52-1.79-11.25-8.25-11.25-14.77c0-9.46,7.67-17.14,16.56-17.14c9.46,0,16.56,7.68,16.56,17.14c0,6.52-4.16,12.98-10.68,14.77
			c-0.05,0.05-0.07,0.07-0.11,0.11v5.11c10.93-1.73,22.21-3.29,33.81-4.62v-30.72l-30.7-31.33c-3.57,2.36-7.67,3.57-11.83,3.57
			c-12.98,0-23.65-10.67-23.65-23.65c0-12.99,10.67-23.03,23.65-23.03c12.99,0,23.61,10.04,23.61,23.03c0,4.15-1.16,7.67-2.95,11.25
			l34.86,34.22v35.28c11.56-1.12,23.4-2.01,35.48-2.59v-22.59l-30.18-30.18v-70.92c-10.61-2.31-18.86-11.77-18.86-23.03
			c0-12.98,10.61-23.6,23.6-23.6c13.04,0,23.08,10.62,23.08,23.6c0,10.04-5.89,18.93-15.35,21.3v67.34l30.7,30.12v27.44
			c7.4-0.23,14.89-0.34,22.45-0.33v-64.91c-10.05-2.36-17.14-11.25-17.14-21.87c0-13.56,10.61-23.6,23.66-23.6
			c12.98,0,23.65,10.04,23.65,23.6c0,10.62-7.15,19.51-17.19,21.87v64.91c7.78,0,15.47,0.12,23.08,0.37v-18.59l30.12-30.76v-65.55
			c-8.891-2.94-15.351-11.83-15.351-21.87c0-12.99,10.62-23.66,23.03-23.66c12.98,0,23.65,10.67,23.65,23.66
			c0,11.25-7.67,20.66-18.29,23.02v70.34l-30.75,30.12v13.81c12.279,0.61,24.319,1.53,36.06,2.69v-44.83l35.431-35.49
			c-1.79-2.94-2.36-6.46-2.36-10.04c0-12.4,10.04-23.6,23.02-23.6c13.04,0,23.66,11.2,23.66,23.6c0,12.99-10.62,23.66-23.66,23.66
			c-4.729,0-8.89-1.79-12.35-3.57l-31.39,30.75v40.85c12.189,1.41,24.04,3.07,35.489,4.93v-5.04c-6.52-2.37-11.25-8.25-11.25-15.35
			c0-9.46,7.15-17.14,16.561-17.14c8.83,0,16.56,7.68,16.56,17.14c0,7.1-4.16,12.98-11.2,15.35v6.84
			c97.15,17.07,163.311,46.87,164.25,46.85c-1.18-0.73-27.04-19.76-71.47-40.26V409.33z"/>
		<path fill="#00BEC9" d="M650.39,424.8c7.73,0,13.62-6.52,13.62-13.62c0-7.09-5.89-12.98-13.62-12.98
			c-7.04,0-12.979,5.89-12.979,12.98C637.41,418.28,643.35,424.8,650.39,424.8z"/>
		<path fill="#00BEC9" d="M461.93,352.09c0-7.67-5.89-13.56-13.04-13.56c-7.04,0-12.99,5.89-12.99,13.56
			c0,7.1,5.95,12.99,12.99,12.99C456.04,365.08,461.93,359.19,461.93,352.09z"/>
		<path fill="#00BEC9" d="M395.74,487.41c0-5.31-4.15-9.46-9.46-9.46c-4.73,0-8.89,4.15-8.89,9.46c0,4.73,4.16,9.46,8.89,9.46
			C391.59,496.87,395.74,492.14,395.74,487.41z"/>
		<path fill="#00BEC9" d="M597.19,361.56c0-7.1-5.891-13.62-13.561-13.62c-6.53,0-12.99,6.52-12.99,13.62s6.46,12.98,12.99,12.98
			C591.3,374.54,597.19,368.66,597.19,361.56z"/>
		<path fill="#00BEC9" d="M370.35,420.65c0,7.67,5.89,13.56,12.98,13.56c7.68,0,12.99-5.89,12.99-13.56
			c0-7.1-5.31-12.99-12.99-12.99C376.24,407.66,370.35,413.55,370.35,420.65z"/>
	</g>
	
		<text transform="matrix(1 0 0 1 202.2974 638.3047)" display="inline" fill="#FFFFFF" font-family="'HURTMOLD'" font-size="184.1392" letter-spacing="184">ILE</text>
</g>
<g id="white_background" display="none">
	<rect display="inline" fill="#FFFFFF" width="1080" height="1080"/>
	
		<text transform="matrix(1 0 0 1 97.5981 712.8594)" display="inline" fill="#00BEC9" font-family="'MyriadPro-Regular'" font-size="64.0387" letter-spacing="3">Home automation at its best ....</text>
	<g display="inline">
		<path fill="#00BEC9" d="M656.91,487.41c0-5.31-4.101-9.46-9.46-9.46c-5.311,0-9.41,4.15-9.41,9.46c0,4.73,4.1,9.46,9.41,9.46
			C652.81,496.87,656.91,492.14,656.91,487.41z"/>
		<path fill="#00BEC9" d="M529.9,411.18c0-7.67-6.57-13.56-13.61-13.56c-7.1,0-13.05,5.89-13.05,13.56c0,7.1,5.95,12.99,13.05,12.99
			C523.33,424.17,529.9,418.28,529.9,411.18z"/>
		<path fill="#00BEC9" d="M745.59,409.33h36.42l-100.96-89.24l-22.68,20.05L525.21,222.46L392.05,340.14l-22.67-20.05l-100.96,89.24
			h36.37v98.66c-55.78,23.32-88.79,47.64-90.13,48.46c0.96,0.01,68.15-30.26,166.54-47.25v-6.79l-0.23-0.23
			c-6.52-1.79-11.25-8.25-11.25-14.77c0-9.46,7.67-17.14,16.56-17.14c9.46,0,16.56,7.68,16.56,17.14c0,6.52-4.16,12.98-10.68,14.77
			c-0.05,0.05-0.07,0.07-0.11,0.11v5.11c10.93-1.73,22.21-3.29,33.81-4.62v-30.72l-30.7-31.33c-3.57,2.36-7.67,3.57-11.83,3.57
			c-12.98,0-23.65-10.67-23.65-23.65c0-12.99,10.67-23.03,23.65-23.03c12.99,0,23.61,10.04,23.61,23.03c0,4.15-1.16,7.67-2.95,11.25
			l34.86,34.22v35.28c11.56-1.12,23.4-2.01,35.48-2.59v-22.59l-30.18-30.18v-70.92c-10.61-2.31-18.86-11.77-18.86-23.03
			c0-12.98,10.61-23.6,23.6-23.6c13.04,0,23.08,10.62,23.08,23.6c0,10.04-5.89,18.93-15.35,21.3v67.34l30.7,30.12v27.44
			c7.4-0.23,14.89-0.34,22.45-0.33v-64.91c-10.05-2.36-17.14-11.25-17.14-21.87c0-13.56,10.61-23.6,23.66-23.6
			c12.98,0,23.65,10.04,23.65,23.6c0,10.62-7.15,19.51-17.19,21.87v64.91c7.78,0,15.47,0.12,23.08,0.37v-18.59l30.12-30.76v-65.55
			c-8.891-2.94-15.351-11.83-15.351-21.87c0-12.99,10.62-23.66,23.03-23.66c12.98,0,23.65,10.67,23.65,23.66
			c0,11.25-7.67,20.66-18.29,23.02v70.34l-30.75,30.12v13.81c12.279,0.61,24.319,1.53,36.06,2.69v-44.83l35.431-35.49
			c-1.79-2.94-2.36-6.46-2.36-10.04c0-12.4,10.04-23.6,23.02-23.6c13.04,0,23.66,11.2,23.66,23.6c0,12.99-10.62,23.66-23.66,23.66
			c-4.729,0-8.89-1.79-12.35-3.57l-31.39,30.75v40.85c12.189,1.41,24.04,3.07,35.489,4.93v-5.04c-6.52-2.37-11.25-8.25-11.25-15.35
			c0-9.46,7.15-17.14,16.561-17.14c8.83,0,16.56,7.68,16.56,17.14c0,7.1-4.16,12.98-11.2,15.35v6.84
			c97.15,17.07,163.311,46.87,164.25,46.85c-1.18-0.73-27.04-19.76-71.47-40.26V409.33z"/>
		<path fill="#00BEC9" d="M650.39,424.8c7.73,0,13.62-6.52,13.62-13.62c0-7.09-5.89-12.98-13.62-12.98
			c-7.04,0-12.979,5.89-12.979,12.98C637.41,418.28,643.35,424.8,650.39,424.8z"/>
		<path fill="#00BEC9" d="M461.93,352.09c0-7.67-5.89-13.56-13.04-13.56c-7.04,0-12.99,5.89-12.99,13.56
			c0,7.1,5.95,12.99,12.99,12.99C456.04,365.08,461.93,359.19,461.93,352.09z"/>
		<path fill="#00BEC9" d="M395.74,487.41c0-5.31-4.15-9.46-9.46-9.46c-4.73,0-8.89,4.15-8.89,9.46c0,4.73,4.16,9.46,8.89,9.46
			C391.59,496.87,395.74,492.14,395.74,487.41z"/>
		<path fill="#00BEC9" d="M597.19,361.56c0-7.1-5.891-13.62-13.561-13.62c-6.53,0-12.99,6.52-12.99,13.62s6.46,12.98,12.99,12.98
			C591.3,374.54,597.19,368.66,597.19,361.56z"/>
		<path fill="#00BEC9" d="M370.35,420.65c0,7.67,5.89,13.56,12.98,13.56c7.68,0,12.99-5.89,12.99-13.56
			c0-7.1-5.31-12.99-12.99-12.99C376.24,407.66,370.35,413.55,370.35,420.65z"/>
	</g>
	
		<text transform="matrix(1 0 0 1 202.2974 638.3047)" display="inline" font-family="'HURTMOLD'" font-size="184.1392" letter-spacing="184">ILE</text>
</g>
<g id="black_x5F_transparent" display="none">
	
		<text transform="matrix(1 0 0 1 97.5981 712.8594)" display="inline" font-family="'MyriadPro-Regular'" font-size="64.0387" letter-spacing="3">Home automation at its best ....</text>
	<g display="inline">
		<path d="M656.91,487.41c0-5.31-4.101-9.46-9.46-9.46c-5.311,0-9.41,4.15-9.41,9.46c0,4.73,4.1,9.46,9.41,9.46
			C652.81,496.87,656.91,492.14,656.91,487.41z"/>
		<path d="M529.9,411.18c0-7.67-6.57-13.56-13.61-13.56c-7.1,0-13.05,5.89-13.05,13.56c0,7.1,5.95,12.99,13.05,12.99
			C523.33,424.17,529.9,418.28,529.9,411.18z"/>
		<path d="M745.59,409.33h36.42l-100.96-89.24l-22.68,20.05L525.21,222.46L392.05,340.14l-22.67-20.05l-100.96,89.24h36.37v98.66
			c-55.78,23.32-88.79,47.64-90.13,48.46c0.96,0.01,68.15-30.26,166.54-47.25v-6.79l-0.23-0.23c-6.52-1.79-11.25-8.25-11.25-14.77
			c0-9.46,7.67-17.14,16.56-17.14c9.46,0,16.56,7.68,16.56,17.14c0,6.52-4.16,12.98-10.68,14.77c-0.05,0.05-0.07,0.07-0.11,0.11
			v5.11c10.93-1.73,22.21-3.29,33.81-4.62v-30.72l-30.7-31.33c-3.57,2.36-7.67,3.57-11.83,3.57c-12.98,0-23.65-10.67-23.65-23.65
			c0-12.99,10.67-23.03,23.65-23.03c12.99,0,23.61,10.04,23.61,23.03c0,4.15-1.16,7.67-2.95,11.25l34.86,34.22v35.28
			c11.56-1.12,23.4-2.01,35.48-2.59v-22.59l-30.18-30.18v-70.92c-10.61-2.31-18.86-11.77-18.86-23.03c0-12.98,10.61-23.6,23.6-23.6
			c13.04,0,23.08,10.62,23.08,23.6c0,10.04-5.89,18.93-15.35,21.3v67.34l30.7,30.12v27.44c7.4-0.23,14.89-0.34,22.45-0.33v-64.91
			c-10.05-2.36-17.14-11.25-17.14-21.87c0-13.56,10.61-23.6,23.66-23.6c12.98,0,23.65,10.04,23.65,23.6
			c0,10.62-7.15,19.51-17.19,21.87v64.91c7.78,0,15.47,0.12,23.08,0.37v-18.59l30.12-30.76v-65.55
			c-8.891-2.94-15.351-11.83-15.351-21.87c0-12.99,10.62-23.66,23.03-23.66c12.98,0,23.65,10.67,23.65,23.66
			c0,11.25-7.67,20.66-18.29,23.02v70.34l-30.75,30.12v13.81c12.279,0.61,24.319,1.53,36.06,2.69v-44.83l35.431-35.49
			c-1.79-2.94-2.36-6.46-2.36-10.04c0-12.4,10.04-23.6,23.02-23.6c13.04,0,23.66,11.2,23.66,23.6c0,12.99-10.62,23.66-23.66,23.66
			c-4.729,0-8.89-1.79-12.35-3.57l-31.39,30.75v40.85c12.189,1.41,24.04,3.07,35.489,4.93v-5.04c-6.52-2.37-11.25-8.25-11.25-15.35
			c0-9.46,7.15-17.14,16.561-17.14c8.83,0,16.56,7.68,16.56,17.14c0,7.1-4.16,12.98-11.2,15.35v6.84
			c97.15,17.07,163.311,46.87,164.25,46.85c-1.18-0.73-27.04-19.76-71.47-40.26V409.33z"/>
		<path d="M650.39,424.8c7.73,0,13.62-6.52,13.62-13.62c0-7.09-5.89-12.98-13.62-12.98c-7.04,0-12.979,5.89-12.979,12.98
			C637.41,418.28,643.35,424.8,650.39,424.8z"/>
		<path d="M461.93,352.09c0-7.67-5.89-13.56-13.04-13.56c-7.04,0-12.99,5.89-12.99,13.56c0,7.1,5.95,12.99,12.99,12.99
			C456.04,365.08,461.93,359.19,461.93,352.09z"/>
		<path d="M395.74,487.41c0-5.31-4.15-9.46-9.46-9.46c-4.73,0-8.89,4.15-8.89,9.46c0,4.73,4.16,9.46,8.89,9.46
			C391.59,496.87,395.74,492.14,395.74,487.41z"/>
		<path d="M597.19,361.56c0-7.1-5.891-13.62-13.561-13.62c-6.53,0-12.99,6.52-12.99,13.62s6.46,12.98,12.99,12.98
			C591.3,374.54,597.19,368.66,597.19,361.56z"/>
		<path d="M370.35,420.65c0,7.67,5.89,13.56,12.98,13.56c7.68,0,12.99-5.89,12.99-13.56c0-7.1-5.31-12.99-12.99-12.99
			C376.24,407.66,370.35,413.55,370.35,420.65z"/>
	</g>
	
		<text transform="matrix(1 0 0 1 202.2974 638.3047)" display="inline" font-family="'HURTMOLD'" font-size="184.1392" letter-spacing="184">ILE</text>
</g>
<g id="white_x5F_transparent" display="none">
	
		<text transform="matrix(1 0 0 1 97.5981 712.8594)" display="inline" fill="#FFFFFF" font-family="'MyriadPro-Regular'" font-size="64.0387" letter-spacing="3">Home automation at its best ....</text>
	<g display="inline">
		<path fill="#FFFFFF" d="M656.91,487.41c0-5.31-4.101-9.46-9.46-9.46c-5.311,0-9.41,4.15-9.41,9.46c0,4.73,4.1,9.46,9.41,9.46
			C652.81,496.87,656.91,492.14,656.91,487.41z"/>
		<path fill="#FFFFFF" d="M529.9,411.18c0-7.67-6.57-13.56-13.61-13.56c-7.1,0-13.05,5.89-13.05,13.56c0,7.1,5.95,12.99,13.05,12.99
			C523.33,424.17,529.9,418.28,529.9,411.18z"/>
		<path fill="#FFFFFF" d="M745.59,409.33h36.42l-100.96-89.24l-22.68,20.05L525.21,222.46L392.05,340.14l-22.67-20.05l-100.96,89.24
			h36.37v98.66c-55.78,23.32-88.79,47.64-90.13,48.46c0.96,0.01,68.15-30.26,166.54-47.25v-6.79l-0.23-0.23
			c-6.52-1.79-11.25-8.25-11.25-14.77c0-9.46,7.67-17.14,16.56-17.14c9.46,0,16.56,7.68,16.56,17.14c0,6.52-4.16,12.98-10.68,14.77
			c-0.05,0.05-0.07,0.07-0.11,0.11v5.11c10.93-1.73,22.21-3.29,33.81-4.62v-30.72l-30.7-31.33c-3.57,2.36-7.67,3.57-11.83,3.57
			c-12.98,0-23.65-10.67-23.65-23.65c0-12.99,10.67-23.03,23.65-23.03c12.99,0,23.61,10.04,23.61,23.03c0,4.15-1.16,7.67-2.95,11.25
			l34.86,34.22v35.28c11.56-1.12,23.4-2.01,35.48-2.59v-22.59l-30.18-30.18v-70.92c-10.61-2.31-18.86-11.77-18.86-23.03
			c0-12.98,10.61-23.6,23.6-23.6c13.04,0,23.08,10.62,23.08,23.6c0,10.04-5.89,18.93-15.35,21.3v67.34l30.7,30.12v27.44
			c7.4-0.23,14.89-0.34,22.45-0.33v-64.91c-10.05-2.36-17.14-11.25-17.14-21.87c0-13.56,10.61-23.6,23.66-23.6
			c12.98,0,23.65,10.04,23.65,23.6c0,10.62-7.15,19.51-17.19,21.87v64.91c7.78,0,15.47,0.12,23.08,0.37v-18.59l30.12-30.76v-65.55
			c-8.891-2.94-15.351-11.83-15.351-21.87c0-12.99,10.62-23.66,23.03-23.66c12.98,0,23.65,10.67,23.65,23.66
			c0,11.25-7.67,20.66-18.29,23.02v70.34l-30.75,30.12v13.81c12.279,0.61,24.319,1.53,36.06,2.69v-44.83l35.431-35.49
			c-1.79-2.94-2.36-6.46-2.36-10.04c0-12.4,10.04-23.6,23.02-23.6c13.04,0,23.66,11.2,23.66,23.6c0,12.99-10.62,23.66-23.66,23.66
			c-4.729,0-8.89-1.79-12.35-3.57l-31.39,30.75v40.85c12.189,1.41,24.04,3.07,35.489,4.93v-5.04c-6.52-2.37-11.25-8.25-11.25-15.35
			c0-9.46,7.15-17.14,16.561-17.14c8.83,0,16.56,7.68,16.56,17.14c0,7.1-4.16,12.98-11.2,15.35v6.84
			c97.15,17.07,163.311,46.87,164.25,46.85c-1.18-0.73-27.04-19.76-71.47-40.26V409.33z"/>
		<path fill="#FFFFFF" d="M650.39,424.8c7.73,0,13.62-6.52,13.62-13.62c0-7.09-5.89-12.98-13.62-12.98
			c-7.04,0-12.979,5.89-12.979,12.98C637.41,418.28,643.35,424.8,650.39,424.8z"/>
		<path fill="#FFFFFF" d="M461.93,352.09c0-7.67-5.89-13.56-13.04-13.56c-7.04,0-12.99,5.89-12.99,13.56
			c0,7.1,5.95,12.99,12.99,12.99C456.04,365.08,461.93,359.19,461.93,352.09z"/>
		<path fill="#FFFFFF" d="M395.74,487.41c0-5.31-4.15-9.46-9.46-9.46c-4.73,0-8.89,4.15-8.89,9.46c0,4.73,4.16,9.46,8.89,9.46
			C391.59,496.87,395.74,492.14,395.74,487.41z"/>
		<path fill="#FFFFFF" d="M597.19,361.56c0-7.1-5.891-13.62-13.561-13.62c-6.53,0-12.99,6.52-12.99,13.62s6.46,12.98,12.99,12.98
			C591.3,374.54,597.19,368.66,597.19,361.56z"/>
		<path fill="#FFFFFF" d="M370.35,420.65c0,7.67,5.89,13.56,12.98,13.56c7.68,0,12.99-5.89,12.99-13.56
			c0-7.1-5.31-12.99-12.99-12.99C376.24,407.66,370.35,413.55,370.35,420.65z"/>
	</g>
	
		<text transform="matrix(1 0 0 1 202.2974 638.3047)" display="inline" fill="#FFFFFF" font-family="'HURTMOLD'" font-size="184.1392" letter-spacing="184">ILE</text>
</g>
</svg>
